{
	students: [
		{
			"name": 'Uday',
			"sex": 'Male',
			"address": 'Kamakya, Bengaluru',
			"dept": 'Computer Science',
			"electives": 'Web-2.0, Robotics'
		},
		{
			"name": 'Kumuda',
			"sex": 'Female',
			"address": 'Koramangala, Bengaluru',
			"dept": 'Electrical engineering',
			"electives": 'Web-2.0, Matlab'
		}
	]
}
